{
    "name" : "externalcalc",
    "version" : "0.1.2",
    "author" : "Hiori Kino",
    "entry_points" : {
       "aiida.workflows": [
           "externalcalc.add3thenmul3 = pythoncalc.workflows.add3thenmul3: Add3ThenMul3WorkChain" 
       ], 
       "aiida.calculations": [
           "externalcalc.addmul = pythoncalc.calculations.addmul: externalAddMulCalculation" ,
           "externalcalc.addmul2 = pythoncalc.calculations.addmul2: externalAddMulCalculation" ,
           "externalcalc.addmul2b = pythoncalc.calculations.addmul2b: externalAddMulCalculation" ,
           "externalcalc.addmul3 = pythoncalc.calculations.addmul3: externalAddMulCalculation" ,
           "externalcalc.addmul3mpi = pythoncalc.calculations.addmul3mpi: externalAddMulCalculation" ,
           "externalcalc.add3 = pythoncalc.calculations.add3: externalAddCalculation",
           "externalcalc.mul3 = pythoncalc.calculations.mul3: externalMulCalculation"
       ],
       "aiida.parsers": [
           "externalcalc.addmul = pythoncalc.parsers.addmul: externalAddMulParser" ,
           "externalcalc.addmul2 = pythoncalc.parsers.addmul2: externalAddMulParser" ,
           "externalcalc.addmul2b = pythoncalc.parsers.addmul2b: externalAddMulParser",
           "externalcalc.add3 = pythoncalc.parsers.add3: externalAddParser",
           "externalcalc.mul3 = pythoncalc.parsers.mul3: externalMulParser" 
       ] 
    }
}
